[
  {
    "ProdutoCodigo": "C39461",
    "EstoqueDisponivel": "2",
    "Status": 0,
    "vendeAvulso": 0,
    "emLinha": 0,
    "Codigo": "C39461",
    "disponivel": 2,
    "PrecoDe": 0,
    "PrecoPor": 899,
    "produtoId": 4884
  }
]