{
  "dadosPaginacao": {
    "dadosPaginacao": {
      "totalProdutos": 6353,
      "produtosPorPagina": 200,
      "totalPaginas": 32,
      "paginaAtual": 1
    },
    "produtos": [
      {
        "produtoId": 86788,
        "fabricanteId": 163,
        "codigo": 98002,
        "nome": "Sandália Beira Rio Cetim Preto",
        "descricao": "Sandália Beira Rio Cetim Preto",
        "emLinha": 1,
        "atributosSubstituicao": [
          {
            "atributoNome": "Escolha sua Estampa",
            "valor": "Sofia",
            "nomeProduto": "Aparelho de Jantar Redondo 42 pe\u00e7as em Porcelana \" Serve at\u00e9 6 pessoas\" Incluso Pires e X\u00edcaras para Ch\u00e1 e Caf\u00e9Borda Dourada\u00a0\u00a0 Flamingo Sofia - Oxford",
            "codigo": 409558,
            "eAN": 7897181981630,
            "produtoOrigem": 1,
            "disponivel": 2
          },
          {
            "atributoNome": "Escolha sua Estampa",
            "valor": "Isabel",
            "nomeProduto": "Aparelho de Jantar Redondo 42 pe\u00e7as em Porcelana \" Serve at\u00e9 6 pessoas\" Incluso Pires e X\u00edcaras para Ch\u00e1 e Caf\u00e9 Borda Prateada\u00a0 Flamingo Isabel-Oxford",
            "codigo": 409561,
            "eAN": 7897181981631,
            "produtoOrigem": 0,
            "disponivel": 4
          }
        ],
        "atributosCorTamanho": [
          {
            "corNome": "Preto",
            "tamanho": 33,
            "codigo": 137110,
            "produtoStatus": 0,
            "disponivel": 0,
            "produtoOrigem": 1
          },
          {
            "corNome": "Preto",
            "tamanho": 34,
            "codigo": 137111,
            "produtoStatus": 0,
            "disponivel": 0,
            "produtoOrigem": 0
          }
        ],
        "eAN": 7897181981630,
        "codigoFornecedor": "",
        "lojaId": 258,
        "loja": "Eletroportáteis",
        "categoriaId": 544,
        "categoria": "Grills, Sanduicheiras e Torradeiras",
        "subCategoriaId": 550,
        "subCategoria": "Grill",
        "fabricante": "Dellar",
        "status": 0,
        "precoDe": 89,
        "precoPor": 33.52,
        "quantidade": 1,
        "parcelamentoMaximoSemJuros": 1,
        "caracteristicas": {
          "0": "Controle de temperatura: Não ",
          "1": "Dispensa uso de óleo: Sim ",
          "2": "Bateria: Não ",
          "3": "Elétrico: Sim ",
          "4": "Portátil: Sim ",
          "5": "Alça fria: Sim ",
          "6": "Base anti-derrapante: Sim ",
          "7": "Desmontável: Não ",
          "8": "Placa removível: Não ",
          "9": "Placas antiaderentes: Sim ",
          "10": "Bandeja coletora de gordura: Sim ",
          "11": "Porta-fio: Não ",
          "12": "Presilha: Não ",
          "13": "Timer: Não ",
          "14": "Trava de segurança: Não ",
          "15": "Aquece: Sim ",
          "16": "Desligamento automático: Não ",
          "17": "Grelha: Sim ",
          "18": "Indicado para lava-louças: Não ",
          "19": "Lâmpada piloto: Sim ",
          "20": "Isolamento térmico: Sim ",
          "21": "Cor: Preta ",
          "22": "Potência: 700 w",
          "23": "Quantidade de hamburgueres por vez: 2 ",
          "24": "Tipo: Horizontal ",
          "25": "Cabo elétrico (giratório/flexível): Flexivel ",
          "26": "Comprimento do cabo: 1,2 cm",
          "27": "Formato de placa: Oval "
        },
        "dataAlteracao": "2014-05-30 17:56:53",
        "medias": {
          "jpg": [
            "http://parceiroimg.maquinadevendas.com.br/produto/98002_255810_20111228114755.jpg",
            "http://parceiroimg.maquinadevendas.com.br/produto/98002_255812_20111228114800.jpg",
            "http://parceiroimg.maquinadevendas.com.br/produto/98002_255814_20111228114813.jpg",
            "http://parceiroimg.maquinadevendas.com.br/produto/98002_255816_20111228114819.jpg",
            "http://parceiroimg.maquinadevendas.com.br/produto/98002_255818_20111228114823.jpg",
            "http://parceiroimg.maquinadevendas.com.br/produto/98002_255820_20111228114827.jpg",
            "http://parceiroimg.maquinadevendas.com.br/produto/98002_255822_20111228114832.jpg",
            "http://parceiroimg.maquinadevendas.com.br/produto/98002_255824_20111228114838.jpg",
            "http://parceiroimg.maquinadevendas.com.br/produto/98002_255826_20111228114842.jpg"
          ]
        },
        "altura": 10,
        "comprimento": 27,
        "largura": 26,
        "peso": 1.6,
        "alturaEmbalagem": 0.122,
        "comprimentoEmbalagem": 0.275,
        "larguraEmbalagem": 0.29,
        "pesoEmbalagem": 1.9,
        "disponivel": 0,
        "url": "http://www.lojaonlinenokia.com.br/Produto/Grill-Chef-DGR-163-Dellar/258-544-550-86788",
        "parcelamento": {
          "1": 33.52,
          "2": 17.34,
          "3": 11.69,
          "4": 8.87,
          "5": 7.17,
          "6": 6.04,
          "7": 5.24
        },
        "garantias": {
          "12": {
            "produtoId": 86788,
            "codigo": 132600,
            "parcelamento": 1,
            "prazo": 12,
            "valorVenda": 4.02,
            "valorParcelado": 4.02
          },
          "24": {
            "produtoId": 86788,
            "codigo": 132601,
            "parcelamento": 1,
            "prazo": 24,
            "valorVenda": 6.7,
            "valorParcelado": 6.7
          },
          "36": {
            "produtoId": 86788,
            "codigo": 132602,
            "parcelamento": 1,
            "prazo": 36,
            "valorVenda": 10.06,
            "valorParcelado": 10.06
          }
        }
      },
      ...
    ]
  }